{
  "language_code": "sq",
  "language_name": "shqiptare",
  "navbar_support": "Gjeni mbështetje",
  "navbar_about": "Për ueb-faqen",
  "navbar_self-care": "Vetkujdesi",
  "navbar_documentation": "Dokumentacioni",
  "navbar_download": "Shkarko faqen e internetit",
  "home_welcome_1": "Mirë se vini në",
  "home_welcome_2": "Paketa e Ndihmës së Parë Dixhitale!",
  "home_byline": "Një komplet i krijuar për t'ju çuar në ekipin e duhur CiviCERT",
  "home_intro": "Paketa e Ndihmës së Parë Dixhitale është një burim falas për të ndihmuar personat që reagojnë shpejt, trajnerët e sigurisë dixhitale dhe aktivistët e aftë për teknologjinë për të mbrojtur më mirë veten dhe komunitetet që ata mbështesin kundër llojeve më të zakonshme të emergjencave dixhitale. Mund të përdoret gjithashtu nga aktivistë, mbrojtës të të drejtave të njeriut, blogerë, gazetarë ose aktivistë mediatikë që duan të mësojnë më shumë se si mund të mbrojnë veten dhe të mbështesin të tjerët. Nëse ju ose dikush që po ndihmoni po përjeton një urgjencë dixhitale, Kompleti i Ndihmës së Parë Dixhitale do t'ju udhëzojë në diagnostikimin e problemeve me të cilat po përballeni dhe do t'ju referojë te ofruesit e mbështetjes për ndihmë të mëtejshme nëse është e nevojshme.",
  "home_topics_title": "Me çfarë problemi po përballeni?",
  "home_topics_description": "Zgjidh problemin me të cilin po përballen dhe Paketa e Ndihmës së Parë Dixhitale do t'ju përcjellë një sërë pyetjesh për të diagnostikuar më mirë problemin dhe për të gjetur burimin për t'ju gjetur. Për problemet që nuk mund t'i trajtoni vetë, DFAK ka një listë të organizatave mbështetëse me të cilat duhet të konsultoheni.",
  "home_bottom_col_1_title": "Çfarë tjetër duhet të dini?",
  "home_bottom_col_1_text": "Paketa e Ndihmës së Parë Dixhitale nuk është menduar të shërbejë si zgjidhja përfundimtare për të gjitha urgjencat tuaja dixhitale. Nëse ndiheni të pasigurt se si t'i trajtoni problemet me të cilat po përballeni, ju lutemi kontaktoni <a href='/sq/support'>listën e organizatave mbështetëse me të cilat mund të konsultoheni</a>.",
  "home_bottom_col_2_title": "Ndiheni të mbingarkuar?",
  "home_bottom_col_2_text": "Ngacmimet në internet, kërcënimet dhe llojet e tjera të sulmeve dixhitale mund të krijojnë barrë të madhe për ndjenjat dhe mirëqenien tuaj. Lexoni këshillat tona për <a href='/sq/self-care'> Vetkujdesi</a> për të gjetur më shumë burime dhe organizata për mbështetje dhe zbutje.",
  "home_bottom_col_3_title": "Kush qëndron pas Paketa e Ndihmës së Parë Dixhitale?",
  "home_bottom_col_3_text": "Ky burim është një përpjekje bashkëpunuese e <a href='https://rarenet.org' target='_blank' rel='noreferrer nofollow'>Rapid Response Network</a> dhe <a href='https://civicert.org' target='_blank' rel='noreferrer nofollow'>CiviCERT</a>. Shikoni <a href='/sq/about'>faqe Për ueb-faqen</a> tonë për më shumë informacion. Paketa e Ndihmës së Parë Dixhitale është një projekt me burim të hapur dhe ne e mirëpresim <a href='https://gitlab.com/rarenet/dfak_2020' target='_blank' rel='nofollow noreferrer'>kontributet e jashtme</a>.",
  "strings_answer": "Tani, përgjigjuni pyetjeve të mëposhtme për të marrë një ide më të mirë se çfarë po ndodh.",
  "strings_start": "Filloni",
  "start_again": "Të fillojë përsëri",
  "strings_previous_question": "Pyetja e mëparshme",
  "strings_more_tips": "Më shumë këshilla",
  "strings_resources": "Burimet",
  "strings_expand_info": "Zgjero informacionin",
  "strings_fold": "Palos",
  "strings_consider": "Merrni parasysh",
  "strings_support": "Gjeni mbështetje",
  "strings_about": "Për ueb-faqen",
  "strings_self-care": "Vetkujdesi",
  "strings_offline_version": "Shkarko faqen e internetit",
  "strings_gitlab_repo": "Depoja e Gitlab",
  "strings_breadcrumb_dfak": "DFAK",
  "strings_topics": "Temat",
  "strings_languages": "Gjuhët",
  "strings_beneficiaries": "Përfituesit",
  "strings_services": "Shërbimet",
  "strings_website": "Faqja e internetit",
  "strings_who_they_help": "Kujt i ndihmojnë",
  "strings_how_to_contact": "Si të kontaktoni",
  "strings_available_in_languages": "E disponueshme në gjuhë",
  "strings_working_hours": "Orë pune",
  "strings_expected_response_time": "Koha e pritur e përgjigjes",
  "strings_filters_count": "Duke treguar {{count}} organizata",
  "strings_filters_title": "Filtrat",
  "strings_filter": "Filtro organizatat",
  "strings_view_organisations_grid": "Shiko si rrjetë",
  "strings_view_organisations_list": "Shiko si listë",
  "services_triage": "Triazhi fillestar",
  "services_grants_funding": "Grantet dhe financimet",
  "services_in_person_training": "Trajnim personal",
  "services_org_security": "Siguria Organizative",
  "services_web_hosting": "Pritja e faqes në internet",
  "services_web_protection": "Mbrojtja e faqes në internet (Mbrojtja e mohimit të shërbimit)",
  "services_digital_support": "Mbështetje dixhitale 24/7",
  "services_relocation": "Zhvendosja",
  "services_physical_sec": "Siguria fizike",
  "services_equipment_replacement": "Zëvendësimi i pajisjeve",
  "services_assessment": "Vlerësimi i Kërcënimeve dhe Rreziqeve",
  "services_secure_comms": "Sigurimi i komunikimeve",
  "services_device_security": "Siguria e pajisjes",
  "services_vulnerabilities_malware": "Dobësitë dhe programet me qëllim të keq",
  "services_browsing": "Siguria e shfletimit në ueb",
  "services_account": "Siguria e llogarisë",
  "services_harassment": "Zbutja e ngacmimeve në internet (Doxxing, Trolling)",
  "services_forensic": "Analiza mjeko-ligjore",
  "services_legal": "Mbështetje Ligjore",
  "services_individual_care": "Kujdesi individual",
  "services_advocacy": "Avokimi publik për individët (të arrestuar, në burg, etj.)",
  "services_ddos": "Mohimi i Mbrojtjes së Shërbimit",
  "services_censorship": "Anashkalimi i censurës",
  "beneficiaries_journalists": "Gazetarët",
  "beneficiaries_hrds": "Mbrojtësit e të Drejtave të Njeriut",
  "beneficiaries_hros": "Organizatat e të drejtave të njeriut në rrezik që punojnë në vendet e tyre",
  "beneficiaries_activists": "Aktivistët",
  "beneficiaries_lgbti": "Grupet LGBTI",
  "beneficiaries_women": "Gratë",
  "beneficiaries_youth": "Rinia",
  "beneficiaries_cso": "Organizatat e Shoqërisë Civile",
  "beneficiaries_land": "Mbrojtësit e tokës",
  "beneficiaries_lawyers": "Avokatët",
  "beneficiaries_media": "Media",
  "beneficiaries_other": "Të tjera",
  "beneficiaries_indigenous": "Organizatat indigjene",
  "methods_web_form": "Formulari në internet",
  "methods_email": "Email",
  "methods_pgp": "PGP",
  "methods_pgp_key": "URL e çelësit publik",
  "methods_pgp_key_fingerprint": "Gjurma e gishtit kyç PGPt",
  "methods_mail": "Posto",
  "methods_signal": "Signal",
  "methods_skype": "Skype",
  "methods_whatsapp": "WhatsApp",
  "methods_phone": "Telefoni",
  "methods_tor": "Tor",
  "methods_telegram": "Telegram"
}
