{
  "language_code": "id",
  "language_name": "bahasa Indonesia",
  "navbar_support": "Temukan dukungan",
  "navbar_about": "Tentang",
  "navbar_self-care": "Perawatan diri",
  "navbar_documentation": "Dokumentasi",
  "navbar_download": "Download",
  "home_welcome_1": "Selamat datang di",
  "home_welcome_2": "Pertolongan Pertama Darurat Digital!",
  "home_byline": "Perangkat yang dirancang untuk menghubungkan Anda dengan tim CiviCERT yang tepat",
  "home_intro": "Pertolongan Pertama Darurat Digital adalah sumber daya gratis untuk membantu para perespon cepat, pelatih keamanan digital, dan aktivis yang dekat dengan teknologi agar dapat melindungi diri dan komunitasnya dengan lebih baik dari berbagai keadaan darurat digital yang paling umum. Kit ini dapat juga digunakan oleh para aktivis, pembela hak asasi manusia, blogger, jurnalis, atau aktivis media yang ingin mempelajari lebih lanjut tentang bagaimana mereka dapat melindungi diri dan mendukung orang lain. Jika Anda atau orang lain dalam keadaan darurat digital, Pertolongan Pertama Darurat Digital akan memandu Anda mendiagnosis isu yang Anda hadapi, dan mengarahkan Anda ke penyedia dukungan untuk bantuan lebih lanjut jika perlu.",
  "home_topics_title": "Masalah apa yang Anda hadapi?",
  "home_topics_description": "Pilih masalah yang Anda hadapi dan Pertolongan Pertama Darurat Digital akan memandu  melalui serangkaian pertanyaan untuk mendiagnosis masalah dengan lebih baik dan menemukan sumber daya yang pas untuk membantu Anda. Untuk masalah yang tidak dapat Anda tangani sendiri, Pertolongan Pertama Darurat Digital memiliki daftar organisasi pendukung yang dapat Anda hubungi untuk berkonsultasi.",
  "home_bottom_col_1_title": "Apa lagi yang perlu Anda ketahui?",
  "home_bottom_col_1_text": "Pertolongan Pertama Darurat Digital tidak dimaksudkan untuk menjadi solusi utama untuk semua keadaan darurat digital Anda. Jika Anda tidak yakin tentang cara mengatasi masalah yang Anda hadapi, silakan hubungi <a href='/id/support'>daftar organisasi dukungan yang dapat Anda konsultasikan</a>.",
  "home_bottom_col_2_title": "Merasa kewalahan?",
  "home_bottom_col_2_text": "Pelecehan, ancaman, dan jenis serangan digital lainnya dapat berdampak besar pada perasaan dan kesejahteraan Anda. Baca tips dalam <a href='/self-care'> Panduan Perawatan kami</a> untuk mengetahui lebih lanjut tentang sumber daya dan organisasi pendukung dan mitigasi risiko.",
  "home_bottom_col_3_title": "Siapa yang berada di balik Pertolongan Pertama Darurat Digital",
  "home_bottom_col_3_text": "Sumber daya ini merupakan upaya kolaboratif antara <a href='https://rarenet.org' target='_blank' rel='noreferrer nofollow'>Rapid Response</a> dan <a href='https://civicert.org' target='_blank' rel='noreferrer nofollow'>CiviCERT</a>. Lihat <a href='/about'>halaman Tentang</a> kami untuk informasi lebih lanjut. Pertolongan Pertama Darurat Digital adalah sebuah proyek open-source dan terbuka bagi <a href='https://gitlab.com/rarenet/dfak_2020' target='_blank' rel='nofollow noreferrer'>kontribusi dari luar</a>.",
  "strings_answer": "Sekarang, jawab pertanyaan di bawah ini untuk mendapatkan gambaran mengenai apa yang terjadi.",
  "strings_start": "Start",
  "start_again": "Mulai lagi",
  "strings_previous_question": "Pertanyaan sebelumnya",
  "strings_more_tips": "Tips berikutnya",
  "strings_resources": "Referensi",
  "strings_expand_info": "Informasi berikutnya",
  "strings_fold": "Lipat",
  "strings_consider": "Pertimbangkan",
  "strings_support": "Cari bantuan",
  "strings_about": "Perihal",
  "strings_self-care": "Perawatan diri",
  "strings_offline_version": "Unduh website",
  "strings_gitlab_repo": "Repositori Gitlab",
  "strings_breadcrumb_dfak": "DFAK",
  "strings_topics": "Topik",
  "strings_languages": "Bahasa",
  "strings_beneficiaries": "Penerima manfaat",
  "strings_services": "Layanan",
  "strings_website": "Situs web",
  "strings_who_they_help": "Siapa yang dibantu",
  "strings_how_to_contact": "Kontak",
  "strings_available_in_languages": "Tersedia dalam bahasa",
  "strings_working_hours": "Jam kerja",
  "strings_expected_response_time": "Perkiraan waktu respon",
  "strings_filters_count": "Menampilkan {{count}} organisasi",
  "strings_filters_title": "Filter",
  "strings_filter": "Filter organisasi",
  "strings_view_organisations_grid": "Lihat sebagai kisi",
  "strings_view_organisations_list": "Lihat sebagai daftar",
  "services_triage": "Triage Awal",
  "services_grants_funding": "Hibah & Pendanaan",
  "services_in_person_training": "Pelatihan langsung",
  "services_org_security": "Keamanan Organisasi",
  "services_web_hosting": "Hosting Situs Web",
  "services_web_protection": "Perlindungan situs web (Denial of Service Protection)",
  "services_digital_support": "Bantuan digital 24/7",
  "services_relocation": "Relokasi",
  "services_physical_sec": "Keamanan fisik",
  "services_equipment_replacement": "Penggantian peralatan",
  "services_assessment": "Menilai ancaman & resiko",
  "services_secure_comms": "Mengamankan Komunikasi",
  "services_device_security": "Kemanan perangkat",
  "services_vulnerabilities_malware": "Keamanan dan Malware",
  "services_browsing": "Keamanan Peramban Web",
  "services_account": "Kemananan Akun",
  "services_harassment": "Mitigasi Pelecehan Online (Doxxing, Trolling)",
  "services_forensic": "Analisis Forensik",
  "services_legal": "Bantuan Hukum",
  "services_individual_care": "Perawatan individual",
  "services_advocacy": "Advokasi publik untuk individu (penangkapan, dalam penjara, etc.)",
  "services_ddos": "Denial of Service Protection",
  "services_censorship": "Pengelakan sensor",
  "beneficiaries_journalists": "Jurnalis",
  "beneficiaries_hrds": "Pembela HAM",
  "beneficiaries_hros": "Organisasi HAM beresiko kerja di negara masing-masing",
  "beneficiaries_activists": "Aktivis",
  "beneficiaries_lgbti": "Grup LGBTI",
  "beneficiaries_women": "Perempuan",
  "beneficiaries_youth": "Anak muda",
  "beneficiaries_cso": "Organisasi Masyarakat Sipil",
  "beneficiaries_land": "Pembela Tanah Adat",
  "beneficiaries_lawyers": "Pengacara",
  "beneficiaries_media": "Media",
  "beneficiaries_other": "Lainnya",
  "beneficiaries_indigenous": "Organsisi Adat",
  "methods_web_form": "Formulir web",
  "methods_email": "Surel",
  "methods_pgp": "PGP",
  "methods_pgp_key": "Kunci Publik URL",
  "methods_pgp_key_fingerprint": "PGP Key Fingerprint",
  "methods_mail": "Pos",
  "methods_signal": "Signal",
  "methods_skype": "Skype",
  "methods_whatsapp": "WhatsApp",
  "methods_phone": "Telepon",
  "methods_tor": "Tor",
  "methods_telegram": "Telegram"
}
